digraph G {
nodeaddress [label="{<table>address|<cols>addressid (INTEGER) [PK]\lcustomerid (INTEGER) [FK]\lname (VARCHAR)\laddress1 (VARCHAR)\laddress2 (VARCHAR)\lpostalcode (VARCHAR)\lcity (VARCHAR)\lcountryid (INTEGER) [FK]\llat (DECIMAL)\llng (DECIMAL)\l}", shape=record];
nodecountry [label="{<table>country|<cols>countryid (INTEGER) [PK]\lisocode (VARCHAR)\lcountryname (VARCHAR)\l}", shape=record];
nodecustomer [label="{<table>customer|<cols>customerid (INTEGER) [PK]\lcustomer (VARCHAR)\lvalid (BOOLEAN)\l}", shape=record];
nodedetail [label="{<table>detail|<cols>detailid (INTEGER) [PK]\ldetailtypeid (INTEGER) [FK]\ltrackableid (INTEGER) [FK]\ldetail (LONGVARCHAR)\lvalid (BOOLEAN)\l}", shape=record];
nodedetailtype [label="{<table>detailtype|<cols>detailtypeid (INTEGER) [PK]\lcustomerid (INTEGER) [FK]\ldetailtype (VARCHAR)\lvalid (BOOLEAN)\l}", shape=record];
nodegroupreference [label="{<table>groupreference|<cols>groupreferenceid (INTEGER) [PK]\ltrackableid (INTEGER) [FK]\lcustomerid (INTEGER) [FK]\lgroupreference (VARCHAR)\lvalid (BOOLEAN)\l}", shape=record];
nodelanguage [label="{<table>language|<cols>languageid (INTEGER) [PK]\llanguage (VARCHAR)\llanguagelocal (VARCHAR)\l}", shape=record];
nodelocalization [label="{<table>localization|<cols>localizationid (INTEGER) [PK]\llanguageid (INTEGER) [FK]\llocalizationkey (VARCHAR)\llocalizationvalue (VARCHAR)\l}", shape=record];
nodelogentry [label="{<table>logentry|<cols>logentryid (INTEGER) [PK]\llogentrytypeid (INTEGER) [FK]\luserid (INTEGER) [FK]\lcustomerid (INTEGER) [FK]\ltime (TIMESTAMP)\lip (VARCHAR)\lsessionid (VARCHAR)\lsessionage (FLOAT)\lmessage (VARCHAR)\lreferencetype (VARCHAR)\lreferenceid (INTEGER)\l}", shape=record];
nodelogentrytype [label="{<table>logentrytype|<cols>logentrytypeid (INTEGER) [PK]\llogentrytype (VARCHAR)\l}", shape=record];
nodevehiclestatus [label="{<table>vehiclestatus|<cols>vehiclestatusid (INTEGER) [PK]\lstatustypeid (INTEGER) [FK]\lvehicleid (INTEGER) [FK]\llat (DECIMAL)\llng (DECIMAL)\ltime (TIMESTAMP)\lmessage (LONGVARCHAR)\l}", shape=record];
nodetrackablestatus [label="{<table>trackablestatus|<cols>trackablestatusid (INTEGER) [PK]\lstatustypeid (INTEGER) [FK]\ltrackableid (INTEGER) [FK]\llat (DECIMAL)\llng (DECIMAL)\ltime (TIMESTAMP)\lmessage (LONGVARCHAR)\l}", shape=record];
nodestatustype [label="{<table>statustype|<cols>statustypeid (INTEGER) [PK]\lcustomerid (INTEGER) [FK]\lstatustype (VARCHAR)\lismoving (BOOLEAN)\lhaslocation (BOOLEAN)\lisfinal (BOOLEAN)\lvalid (BOOLEAN)\l}", shape=record];
nodetrackable [label="{<table>trackable|<cols>trackableid (INTEGER) [PK]\lcustomerid (INTEGER) [FK]\lstart_addressid (INTEGER) [FK]\lend_addressid (INTEGER) [FK]\ltrackablereference (VARCHAR)\lcreated (TIMESTAMP)\ledited (TIMESTAMP)\lvalid (BOOLEAN)\l}", shape=record];
nodetrip [label="{<table>trip|<cols>tripid (INTEGER) [PK]\lcustomerid (INTEGER) [FK]\ltripreference (VARCHAR)\lvalid (BOOLEAN)\l}", shape=record];
nodetriptrackable [label="{<table>triptrackable|<cols>triptrackableid (INTEGER) [PK]\ltripid (INTEGER) [FK]\ltrackableid (INTEGER) [FK]\l}", shape=record];
nodetripvehicle [label="{<table>tripvehicle|<cols>tripvehicleid (INTEGER) [PK]\ltripid (INTEGER) [FK]\lvehicleid (INTEGER) [FK]\lintime (TIMESTAMP)\louttime (TIMESTAMP)\l}", shape=record];
nodeuser [label="{<table>user|<cols>userid (INTEGER) [PK]\lusertypeid (INTEGER) [FK]\lcustomerid (INTEGER) [FK]\llanguageid (INTEGER) [FK]\lusername (VARCHAR)\lfirstname (VARCHAR)\llastname (VARCHAR)\lemail (VARCHAR)\lpassword (VARCHAR)\lapikey (VARCHAR)\lvalid (BOOLEAN)\l}", shape=record];
nodeusertype [label="{<table>usertype|<cols>usertypeid (INTEGER) [PK]\lusertype (VARCHAR)\l}", shape=record];
nodevehicle [label="{<table>vehicle|<cols>vehicleid (INTEGER) [PK]\lcustomerid (INTEGER) [FK]\lvehiclereference (VARCHAR)\lapikey (VARCHAR)\lvalid (BOOLEAN)\l}", shape=record];

nodeaddress:cols -> nodecustomer:table [label="customerid=customerid "];
nodeaddress:cols -> nodecountry:table [label="countryid=countryid "];
nodedetail:cols -> nodedetailtype:table [label="detailtypeid=detailtypeid "];
nodedetail:cols -> nodetrackable:table [label="trackableid=trackableid "];
nodedetailtype:cols -> nodecustomer:table [label="customerid=customerid "];
nodegroupreference:cols -> nodetrackable:table [label="trackableid=trackableid "];
nodegroupreference:cols -> nodecustomer:table [label="customerid=customerid "];
nodelocalization:cols -> nodelanguage:table [label="languageid=languageid "];
nodelogentry:cols -> nodelogentrytype:table [label="logentrytypeid=logentrytypeid "];
nodelogentry:cols -> nodeuser:table [label="userid=userid "];
nodelogentry:cols -> nodecustomer:table [label="customerid=customerid "];
nodevehiclestatus:cols -> nodestatustype:table [label="statustypeid=statustypeid "];
nodevehiclestatus:cols -> nodevehicle:table [label="vehicleid=vehicleid "];
nodetrackablestatus:cols -> nodestatustype:table [label="statustypeid=statustypeid "];
nodetrackablestatus:cols -> nodetrackable:table [label="trackableid=trackableid "];
nodestatustype:cols -> nodecustomer:table [label="customerid=customerid "];
nodetrackable:cols -> nodecustomer:table [label="customerid=customerid "];
nodetrackable:cols -> nodeaddress:table [label="start_addressid=addressid "];
nodetrackable:cols -> nodeaddress:table [label="end_addressid=addressid "];
nodetrip:cols -> nodecustomer:table [label="customerid=customerid "];
nodetriptrackable:cols -> nodetrip:table [label="tripid=tripid "];
nodetriptrackable:cols -> nodetrackable:table [label="trackableid=trackableid "];
nodetripvehicle:cols -> nodetrip:table [label="tripid=tripid "];
nodetripvehicle:cols -> nodevehicle:table [label="vehicleid=vehicleid "];
nodeuser:cols -> nodeusertype:table [label="usertypeid=usertypeid "];
nodeuser:cols -> nodecustomer:table [label="customerid=customerid "];
nodeuser:cols -> nodelanguage:table [label="languageid=languageid "];
nodevehicle:cols -> nodecustomer:table [label="customerid=customerid "];
}
